107840413
96191590
68260614
64319625
89098035
83856422
80158468
80158467
77775729
74316379
58671179
60270861
63810440
104904650
100021364
106442046
105157109
89092893
80188421
78845862
101662175
61810790
60744937
63307810
111850149
113092050
114330133
114393991
115660986
115800479
117371414
120505827
120791366
127019523
129416657
130211380
134215922
137735013
142721486
151891823
158888856
170140393
170140394
175686528
180409504